…
    ## ✔ ggplot2 2.2.1     ✔ purrr   0.2.4
    ## ✔ tibble  1.4.1     ✔ dplyr   0.7.4
    ## ✔ tidyr   0.7.2     ✔ stringr 1.2.0
    ## ✔ readr   1.1.1     ✔ forcats 0.2.0

    ## ── Conflicts ───────────────────────────────────────────── tidyverse_conflicts() ──
    ## ✖ dplyr::filter() masks stats::filter()
    ## ✖ dplyr::lag()    masks stats::lag()

``` r
gapminder
```

    ## # A tibble: 1,704 x 6
    ##    country     continent  year lifeExp      pop gdpPercap
    ##    <fctr>      <fctr>    <int>   <dbl>    <int>     <dbl>
    ##  1 Afghanistan Asia       1952    28.8  8425333       779
    ##  2 Afghanistan Asia       1957    30.3  9240934       821
    ##  3 Afghanistan Asia       1962    32.0 10267083       853
    ##  4 Afghanistan Asia       1967    34.0 11537966       836
    ##  5 Afghanistan Asia       1972    36.1 13079460       740
    ##  6 Afghanistan Asia       1977    38.4 14880372       786
    ##  7 Afghanistan Asia       1982    39.9 12881816       978
    ##  8 Afghanistan Asia       1987    40.8 13867957       852
    ##  9 Afghanistan Asia       1992    41.7 16317921       649
    ## 10 Afghanistan Asia       1997    41.8 22227415       635
    ## # ... with 1,694 more rows

``` r
filter(gapminder, lifeExp < 39)
```

    ## # A tibble: 95 x 6
    ##    country     continent  year lifeExp      pop gdpPercap
    ##    <fctr>      <fctr>    <int>   <dbl>    <int>     <dbl>
    ##  1 Afghanistan Asia       1952    28.8  8425333       779
    ##  2 Afghanistan Asia       1957    30.3  9240934       821
    ##  3 Afghanistan Asia       1962    32.0 10267083       853
    ##  4 Afghanistan Asia       1967    34.0 11537966       836
    ##  5 Afghanistan Asia       1972    36.1 13079460       740
    ##  6 Afghanistan Asia       1977    38.4 14880372       786
    ##  7 Angola      Africa     1952    30.0  4232095      3521
    ##  8 Angola      Africa     1957    32.0  4561361      3828
    ##  9 Angola      Africa     1962    34.0  4826015      4269
    ## 10 Angola      Africa     1967    36.0  5247469      5523
    ## # ... with 85 more rows
…
    ## # A tibble: 6 x 6
    ##   country continent  year lifeExp     pop gdpPercap
    ##   <fctr>  <fctr>    <int>   <dbl>   <int>     <dbl>
    ## 1 Rwanda  Africa     1982    46.2 5507565       882
    ## 2 Rwanda  Africa     1987    44.0 6349365       848
    ## 3 Rwanda  Africa     1992    23.6 7290203       737
    ## 4 Rwanda  Africa     1997    36.1 7212583       590
    ## 5 Rwanda  Africa     2002    43.4 7852401       786
    ## 6 Rwanda  Africa     2007    46.2 8860588       863

``` r
filter(gapminder, country %in% c("Rwanda", "Afghanistan"))
```

    ## # A tibble: 24 x 6
    ##    country     continent  year lifeExp      pop gdpPercap
    ##    <fctr>      <fctr>    <int>   <dbl>    <int>     <dbl>
    ##  1 Afghanistan Asia       1952    28.8  8425333       779
    ##  2 Afghanistan Asia       1957    30.3  9240934       821
    ##  3 Afghanistan Asia       1962    32.0 10267083       853
    ##  4 Afghanistan Asia       1967    34.0 11537966       836
    ##  5 Afghanistan Asia       1972    36.1 13079460       740
    ##  6 Afghanistan Asia       1977    38.4 14880372       786
    ##  7 Afghanistan Asia       1982    39.9 12881816       978
    ##  8 Afghanistan Asia       1987    40.8 13867957       852
    ##  9 Afghanistan Asia       1992    41.7 16317921       649
    ## 10 Afghanistan Asia       1997    41.8 22227415       635
    ## # ... with 14 more rows
…
Note that the `echo = FALSE` parameter was added to the code chunk to prevent printing of the R code that generated the plot.

### Select

select() takes logical expressions and returns the columns for which all are TRUE.

select() is used to subset the data on variables or columns:

``` r
select(gapminder, year, lifeExp)
```

    ## # A tibble: 1,704 x 2
    ##     year lifeExp
    ##    <int>   <dbl>
    ##  1  1952    28.8
    ##  2  1957    30.3
    ##  3  1962    32.0
    ##  4  1967    34.0
    ##  5  1972    36.1
    ##  6  1977    38.4
    ##  7  1982    39.9
    ##  8  1987    40.8
    ##  9  1992    41.7
    ## 10  1997    41.8
    ## # ... with 1,694 more rows
…
Intermediate dplyr
------------------

### Mutate

mutate() is a function that defines and inserts new variables (columns) into a tibble.

Imagine we wanted to recover each country’s GDP. After all, the Gapminder data has a variable for population and GDP per capita.

``` r
# create an explicit copy of gapminder for experimenting
(my_gap <- gapminder)
```

    ## # A tibble: 1,704 x 6
    ##    country     continent  year lifeExp      pop gdpPercap
    ##    <fctr>      <fctr>    <int>   <dbl>    <int>     <dbl>
    ##  1 Afghanistan Asia       1952    28.8  8425333       779
    ##  2 Afghanistan Asia       1957    30.3  9240934       821
    ##  3 Afghanistan Asia       1962    32.0 10267083       853
    ##  4 Afghanistan Asia       1967    34.0 11537966       836
    ##  5 Afghanistan Asia       1972    36.1 13079460       740
    ##  6 Afghanistan Asia       1977    38.4 14880372       786
    ##  7 Afghanistan Asia       1982    39.9 12881816       978
    ##  8 Afghanistan Asia       1987    40.8 13867957       852
    ##  9 Afghanistan Asia       1992    41.7 16317921       649
    ## 10 Afghanistan Asia       1997    41.8 22227415       635
    ## # ... with 1,694 more rows

``` r
my_precious <- my_gap %>% filter(country == "Canada")

my_gap %>%
    mutate(gdp = pop * gdpPercap)
```

    ## # A tibble: 1,704 x 7
    ##    country     continent  year lifeExp      pop gdpPercap         gdp
    ##    <fctr>      <fctr>    <int>   <dbl>    <int>     <dbl>       <dbl>
    ##  1 Afghanistan Asia       1952    28.8  8425333       779  6567086330
    ##  2 Afghanistan Asia       1957    30.3  9240934       821  7585448670
    ##  3 Afghanistan Asia       1962    32.0 10267083       853  8758855797
    ##  4 Afghanistan Asia       1967    34.0 11537966       836  9648014150
    ##  5 Afghanistan Asia       1972    36.1 13079460       740  9678553274
    ##  6 Afghanistan Asia       1977    38.4 14880372       786 11697659231
    ##  7 Afghanistan Asia       1982    39.9 12881816       978 12598563401
    ##  8 Afghanistan Asia       1987    40.8 13867957       852 11820990309
    ##  9 Afghanistan Asia       1992    41.7 16317921       649 10595901589
    ## 10 Afghanistan Asia       1997    41.8 22227415       635 14121995875
    ## # ... with 1,694 more rows
…
``` r
# The relative GDP per capita numbers are, in general, well below 1. We see that most of the countries covered by this dataset have substantially lower GDP per capita, relative to Canada, across the entire time period.
```

### Arrange

arrange() reorders the rows in a data frame in a principled way.

``` r
# data ordered by year then country
my_gap %>%
  arrange(year, country)
```

    ## # A tibble: 1,704 x 7
    ##    country     continent  year lifeExp      pop gdpPercap gdpPercapRel
    ##    <fctr>      <fctr>    <int>   <dbl>    <int>     <dbl>        <dbl>
    ##  1 Afghanistan Asia       1952    28.8  8425333       779       0.0686
    ##  2 Albania     Europe     1952    55.2  1282697      1601       0.141 
    ##  3 Algeria     Africa     1952    43.1  9279525      2449       0.215 
    ##  4 Angola      Africa     1952    30.0  4232095      3521       0.310 
    ##  5 Argentina   Americas   1952    62.5 17876956      5911       0.520 
    ##  6 Australia   Oceania    1952    69.1  8691212     10040       0.883 
    ##  7 Austria     Europe     1952    66.8  6927772      6137       0.540 
    ##  8 Bahrain     Asia       1952    50.9   120447      9867       0.868 
    ##  9 Bangladesh  Asia       1952    37.5 46886859       684       0.0602
    ## 10 Belgium     Europe     1952    68.0  8730405      8343       0.734 
    ## # ... with 1,694 more rows

``` r
# data from 2007, sorted on life expectancy in ascending order
my_gap %>%
  filter(year == 2007) %>%
  arrange(lifeExp)
```

    ## # A tibble: 142 x 7
    ##    country                  continent  year lifeExp      pop gdpPe… gdpPe…
    ##    <fctr>                   <fctr>    <int>   <dbl>    <int>  <dbl>  <dbl>
    ##  1 Swaziland                Africa     2007    39.6  1133066   4513 0.124 
    ##  2 Mozambique               Africa     2007    42.1 19951656    824 0.0227
    ##  3 Zambia                   Africa     2007    42.4 11746035   1271 0.0350
    ##  4 Sierra Leone             Africa     2007    42.6  6144562    863 0.0237
    ##  5 Lesotho                  Africa     2007    42.6  2012649   1569 0.0432
    ##  6 Angola                   Africa     2007    42.7 12420476   4797 0.132 
    ##  7 Zimbabwe                 Africa     2007    43.5 12311143    470 0.0129
    ##  8 Afghanistan              Asia       2007    43.8 31889923    975 0.0268
    ##  9 Central African Republic Africa     2007    44.7  4369038    706 0.0194
    ## 10 Liberia                  Africa     2007    45.7  3193942    415 0.0114
    ## # ... with 132 more rows

``` r
# descending order
my_gap %>%
  filter(year == 2007) %>%
  arrange(desc(lifeExp))
```

    ## # A tibble: 142 x 7
    ##    country          continent  year lifeExp       pop gdpPercap gdpPercap…
    ##    <fctr>           <fctr>    <int>   <dbl>     <int>     <dbl>      <dbl>
    ##  1 Japan            Asia       2007    82.6 127467972     31656      0.872
    ##  2 Hong Kong, China Asia       2007    82.2   6980412     39725      1.09 
    ##  3 Iceland          Europe     2007    81.8    301931     36181      0.996
    ##  4 Switzerland      Europe     2007    81.7   7554661     37506      1.03 
    ##  5 Australia        Oceania    2007    81.2  20434176     34435      0.948
    ##  6 Spain            Europe     2007    80.9  40448191     28821      0.794
    ##  7 Sweden           Europe     2007    80.9   9031088     33860      0.932
    ##  8 Israel           Asia       2007    80.7   6426679     25523      0.703
    ##  9 France           Europe     2007    80.7  61083916     30470      0.839
    ## 10 Canada           Americas   2007    80.7  33390141     36319      1.00 
    ## # ... with 132 more rows

### Rename

Used to rename vairables (columns)

``` r
my_gap %>%
    rename(life_exp = lifeExp,
           gdp_percap = gdpPercap,
           gdp_percap_rel = gdpPercapRel)
```

    ## # A tibble: 1,704 x 7
    ##    country     continent  year life_exp      pop gdp_percap gdp_percap_rel
    ##    <fctr>      <fctr>    <int>    <dbl>    <int>      <dbl>          <dbl>
    ##  1 Afghanistan Asia       1952     28.8  8425333        779         0.0686
    ##  2 Afghanistan Asia       1957     30.3  9240934        821         0.0657
    ##  3 Afghanistan Asia       1962     32.0 10267083        853         0.0634
    ##  4 Afghanistan Asia       1967     34.0 11537966        836         0.0520
    ##  5 Afghanistan Asia       1972     36.1 13079460        740         0.0390
    ##  6 Afghanistan Asia       1977     38.4 14880372        786         0.0356
    ##  7 Afghanistan Asia       1982     39.9 12881816        978         0.0427
    ##  8 Afghanistan Asia       1987     40.8 13867957        852         0.0320
    ##  9 Afghanistan Asia       1992     41.7 16317921        649         0.0246
    ## 10 Afghanistan Asia       1997     41.8 22227415        635         0.0219
    ## # ... with 1,694 more rows
…
